…
``` r
#pivot to create language variable
toplang_long <- toplang %>%
  pivot_longer(cols=c(2:6), names_to = "Language", values_to = "Percentage")

toplang_long
```

    ## # A tibble: 825 x 3
    ##    country     Language Percentage
    ##    <chr>       <chr>         <dbl>
    ##  1 Afghanistan English       0.189
    ##  2 Afghanistan Spanish       0.145
    ##  3 Afghanistan French       NA    
    ##  4 Afghanistan German        0.122
    ##  5 Afghanistan Italian      NA    
    ##  6 Albania     English       0.131
    ##  7 Albania     Spanish      NA    
    ##  8 Albania     French       NA    
    ##  9 Albania     German        0.327
    ## 10 Albania     Italian       0.110
    ## # ... with 815 more rows
…
