…
total_col= as_tibble(c(unlist(up),unlist(low)))

return(total_col)
}


print(choose_villager("Egbert"))
```

    ## # A tibble: 40 x 1
    ##    value  
    ##    <chr>  
    ##  1 #C9B08B
    ##  2 #5D6E3D
    ##  3 #41603A
    ##  4 #47476A
    ##  5 #496C34
    ##  6 #4E7038
    ##  7 #4D6F37
    ##  8 #446931
    ##  9 #BAB27E
    ## 10 #FAE2B4
    ## # ... with 30 more rows
…
