…
``` r
# look at the range of years in the data first
range(nyt_full$year)
```

    ## [1] 1931 2020

``` r
# titles with highest no of weeks at #1
nyt_full |> 
  filter(rank == 1) |> 
  count(title, sort = TRUE)
```

    ## # A tibble: 967 × 2
    ##    title                                 n
    ##    <chr>                             <int>
    ##  1 THE DA VINCI CODE                    59
    ##  2 WHERE THE CRAWDADS SING              54
    ##  3 HAWAII                               49
    ##  4 THE CAINE MUTINY                     48
    ##  5 LOVE STORY                           41
    ##  6 THE SOURCE                           41
    ##  7 JONATHAN LIVINGSTON SEAGULL          38
    ##  8 THE BRIDGES OF MADISON COUNTY        38
    ##  9 TRINITY                              36
    ## 10 THE SPY WHO CAME IN FROM THE COLD    34
    ## # … with 957 more rows

``` r
# add year for more information
# this doesn't quite do what we want as it splits up the count by year
nyt_full |> 
  filter(rank == 1) |> 
  count(title, year, sort = TRUE)
```

    ## # A tibble: 1,086 × 3
    ##    title                              year     n
    ##    <chr>                             <dbl> <int>
    ##  1 HAWAII                             1960    37
    ##  2 THE BRIDGES OF MADISON COUNTY      1993    35
    ##  3 LOVE STORY                         1970    34
    ##  4 THE SPY WHO CAME IN FROM THE COLD  1964    34
    ##  5 DESIREE                            1953    32
    ##  6 THE ROBE                           1943    31
    ##  7 AIRPORT                            1968    30
    ##  8 WHERE THE CRAWDADS SING            2019    30
    ##  9 ANATOMY OF A MURDER                1958    29
    ## 10 THE DA VINCI CODE                  2004    28
    ## # … with 1,076 more rows
…
top_titles
```

    ## # A tibble: 967 × 3
    ##    title                             total_weeks years    
    ##    <chr>                                   <int> <glue>   
    ##  1 THE DA VINCI CODE                          59 2003-2006
    ##  2 WHERE THE CRAWDADS SING                    54 2019-2020
    ##  3 HAWAII                                     49 1960-1961
    ##  4 THE CAINE MUTINY                           48 1951-1952
    ##  5 LOVE STORY                                 41 1970-1971
    ##  6 THE SOURCE                                 41 1965-1966
    ##  7 JONATHAN LIVINGSTON SEAGULL                38 1972-1973
    ##  8 THE BRIDGES OF MADISON COUNTY              38 1993-1995
    ##  9 TRINITY                                    36 1976-1977
    ## 10 THE SPY WHO CAME IN FROM THE COLD          34 1964-1964
    ## # … with 957 more rows
…
``` r
no1_titles <- nyt_full |> 
  filter(rank == 1) |> 
  select(title) |> 
  pull() |> 
  unique()

nyt_full |> 
  filter(title %in% no1_titles) 
```

    ## # A tibble: 19,453 × 6
    ##     year week        rank title_id title                author         
    ##    <dbl> <date>     <dbl>    <dbl> <chr>                <chr>          
    ##  1  1931 1931-10-12     1     6477 THE TEN COMMANDMENTS Warwick Deeping
    ##  2  1931 1931-10-12     3     5304 THE GOOD EARTH       Pearl S. Buck  
    ##  3  1931 1931-11-16     1     2878 MAID IN WAITING      John Galsworthy
    ##  4  1931 1931-11-30     1     2878 MAID IN WAITING      John Galsworthy
    ##  5  1931 1931-12-07     1     2878 MAID IN WAITING      John Galsworthy
    ##  6  1931 1931-12-07     2     5303 THE GOOD EARTH       Pearl Buck     
    ##  7  1931 1931-12-14     1     2878 MAID IN WAITING      John Galsworthy
    ##  8  1931 1931-12-21     1     2878 MAID IN WAITING      John Galsworthy
    ##  9  1931 1931-12-28     1     2878 MAID IN WAITING      John Galsworthy
    ## 10  1932 1932-01-04     1     2878 MAID IN WAITING      John Galsworthy
    ## # … with 19,443 more rows
…
