…
### Loading in the Data

``` r
breed_traits <- readr::read_csv('https://raw.githubusercontent.com/rfordatascience/tidytuesday/master/data/2022/2022-02-01/breed_traits.csv')
trait_description <- readr::read_csv('https://raw.githubusercontent.com/rfordatascience/tidytuesday/master/data/2022/2022-02-01/trait_description.csv')
breed_rank_all <- readr::read_csv('https://raw.githubusercontent.com/rfordatascience/tidytuesday/master/data/2022/2022-02-01/breed_rank.csv')

breed_traits
```

    ## # A tibble: 195 x 17
    ##    Breed   `Affectionate Wi… `Good With Young… `Good With Othe… `Shedding Level`
    ##    <chr>               <dbl>             <dbl>            <dbl>            <dbl>
    ##  1 Retrie…                 5                 5                5                4
    ##  2 French…                 5                 5                4                3
    ##  3 German…                 5                 5                3                4
    ##  4 Retrie…                 5                 5                5                4
    ##  5 Bulldo…                 4                 3                3                3
    ##  6 Poodles                 5                 5                3                1
    ##  7 Beagles                 3                 5                5                3
    ##  8 Rottwe…                 5                 3                3                3
    ##  9 Pointe…                 5                 5                4                3
    ## 10 Dachsh…                 5                 3                4                2
    ## # … with 185 more rows, and 12 more variables: Coat Grooming Frequency <dbl>,
    ## #   Drooling Level <dbl>, Coat Type <chr>, Coat Length <chr>,
    ## #   Openness To Strangers <dbl>, Playfulness Level <dbl>,
    ## #   Watchdog/Protective Nature <dbl>, Adaptability Level <dbl>,
    ## #   Trainability Level <dbl>, Energy Level <dbl>, Barking Level <dbl>,
    ## #   Mental Stimulation Needs <dbl>
…
``` r
breed_rank_all
```

    ## # A tibble: 195 x 11
    ##    Breed `2013 Rank` `2014 Rank` `2015 Rank` `2016 Rank` `2017 Rank` `2018 Rank`
    ##    <chr>       <dbl>       <dbl>       <dbl>       <dbl>       <dbl>       <dbl>
    ##  1 Retr…           1           1           1           1           1           1
    ##  2 Fren…          11           9           6           6           4           4
    ##  3 Germ…           2           2           2           2           2           2
    ##  4 Retr…           3           3           3           3           3           3
    ##  5 Bull…           5           4           4           4           5           5
    ##  6 Pood…           8           7           8           7           7           7
    ##  7 Beag…           4           5           5           5           6           6
    ##  8 Rott…           9          10           9           8           8           8
    ##  9 Poin…          13          12          11          11          10           9
    ## 10 Dach…          10          11          13          13          13          12
    ## # … with 185 more rows, and 4 more variables: 2019 Rank <dbl>, 2020 Rank <dbl>,
    ## #   links <chr>, Image <chr>
…
top_10_time
```

    ## # A tibble: 80 x 7
    ##    breed     links          image                year  rank first_year last_year
    ##    <fct>     <chr>          <chr>               <dbl> <dbl> <lgl>      <lgl>    
    ##  1 Retrieve… https://www.a… https://www.akc.or…  2013     1 TRUE       FALSE    
    ##  2 Retrieve… https://www.a… https://www.akc.or…  2014     1 FALSE      FALSE    
    ##  3 Retrieve… https://www.a… https://www.akc.or…  2015     1 FALSE      FALSE    
    ##  4 Retrieve… https://www.a… https://www.akc.or…  2016     1 FALSE      FALSE    
    ##  5 Retrieve… https://www.a… https://www.akc.or…  2017     1 FALSE      FALSE    
    ##  6 Retrieve… https://www.a… https://www.akc.or…  2018     1 FALSE      FALSE    
    ##  7 Retrieve… https://www.a… https://www.akc.or…  2019     1 FALSE      FALSE    
    ##  8 Retrieve… https://www.a… https://www.akc.or…  2020     1 FALSE      TRUE     
    ##  9 French B… https://www.a… https://www.akc.or…  2014     9 TRUE       FALSE    
    ## 10 French B… https://www.a… https://www.akc.or…  2015     6 FALSE      FALSE    
    ## # … with 70 more rows
…
``` r
#this is too hectic - Let's cut this down a little

top_borkers <- filter(borkers, barking_level == 5)

top_borkers
```

    ## # A tibble: 25 x 2
    ##    breed                        barking_level
    ##    <chr>                                <dbl>
    ##  1 Dachshunds                               5
    ##  2 Siberian Huskies                         5
    ##  3 Miniature Schnauzers                     5
    ##  4 Shetland Sheepdogs                       5
    ##  5 Chihuahuas                               5
    ##  6 Collies                                  5
    ##  7 West Highland White Terriers             5
    ##  8 Bloodhounds                              5
    ##  9 Papillons                                5
    ## 10 Samoyeds                                 5
    ## # … with 15 more rows
…
    ## {html_document}
    ## <html lang="en-us">
    ## [1] <head>\n<meta http-equiv="Content-Type" content="text/html; charset=UTF-8 ...
    ## [2] <body class="post-template-default single single-post postid-7589 single- ...

``` r
#importing table data from webpage

table <- dog_price_page %>% html_table(fill = TRUE, header = TRUE) 

table
```

    ## [[1]]
    ## # A tibble: 151 x 4
    ##    Breed                          `Average Price` `Price Range`   Ads
    ##    <chr>                          <chr>           <chr>         <int>
    ##  1 Afghan Hound                   $2250           $2000-2500       17
    ##  2 Airedale Terrier               $850            $500-1500        78
    ##  3 Akita                          $1000           $600-1980       273
    ##  4 Alaskan Malamute               $975            $500-2500       207
    ##  5 American Eskimo Dog            $1000           $700-1500        43
    ##  6 American Hairless Terrier      $1500           $1125-1900        6
    ##  7 American Staffordshire Terrier $750            $250-1500        43
    ##  8 Anatolian Shepherd Dog         $900            $500-2000        56
    ##  9 Australian Cattle Dog          $450            $250-1200       300
    ## 10 Australian Shepherd            $800            $400-1500      1740
    ## # … with 141 more rows
…
