…
## Read and inspect data

``` r
episodes <- readr::read_csv('https://raw.githubusercontent.com/rfordatascience/tidytuesday/master/data/2022/2022-10-18/episodes.csv')
all_dialogue <- readr::read_csv('https://raw.githubusercontent.com/rfordatascience/tidytuesday/master/data/2022/2022-10-18/stranger_things_all_dialogue.csv')
```

``` r
episodes
```

    # A tibble: 34 × 6
       season episode title                               direc…¹ writt…² original…³
        <dbl>   <dbl> <chr>                               <chr>   <chr>   <date>    
     1      1       1 Chapter One: The Vanishing of Will… The Du… The Du… 2016-07-15
     2      1       2 Chapter Two: The Weirdo on Maple S… The Du… The Du… 2016-07-15
     3      1       3 Chapter Three: Holly, Jolly         Shawn … Jessic… 2016-07-15
     4      1       4 Chapter Four: The Body              Shawn … Justin… 2016-07-15
     5      1       5 Chapter Five: The Flea and the Acr… The Du… Alison… 2016-07-15
     6      1       6 Chapter Six: The Monster            The Du… Jessie… 2016-07-15
     7      1       7 Chapter Seven: The Bathtub          The Du… Justin… 2016-07-15
     8      1       8 Chapter Eight: The Upside Down      The Du… Paul D… 2016-07-15
     9      2       1 Chapter One: MADMAX                 The Du… The Du… 2017-10-27
    10      2       2 Chapter Two: Trick or Treat, Freak  The Du… The Du… 2017-10-27
    # … with 24 more rows, and abbreviated variable names ¹​directed_by,
    #   ²​written_by, ³​original_release_date

``` r
all_dialogue
```

    # A tibble: 32,519 × 8
       season episode  line raw_text                 stage…¹ dialo…² start…³ end_t…⁴
        <dbl>   <dbl> <dbl> <chr>                    <chr>   <chr>   <time>  <time> 
     1      1       1     1 [crickets chirping]      [crick… <NA>    00'07"  00'09" 
     2      1       1     2 [alarm blaring]          [alarm… <NA>    00'49"  00'51" 
     3      1       1     3 [panting]                [panti… <NA>    00'52"  00'54" 
     4      1       1     4 [elevator descending]    [eleva… <NA>    01'01"  01'02" 
     5      1       1     5 [elevator dings]         [eleva… <NA>    01'09"  01'10" 
     6      1       1     6 [breathing heavily]      [breat… <NA>    01'15"  01'17" 
     7      1       1     7 [low growling]           [low g… <NA>    01'28"  01'31" 
     8      1       1     8 [screaming]              [screa… <NA>    01'35"  01'36" 
     9      1       1     9 [Mike] Something is com… [Mike]  Someth… 01'44"  01'48" 
    10      1       1    10 A shadow grows on the w… <NA>    A shad… 01'48"  01'52" 
    # … with 32,509 more rows, and abbreviated variable names ¹​stage_direction,
    #   ²​dialogue, ³​start_time, ⁴​end_time
…
Calculate tf-idf and look at most distinctive words

``` r
words_tf_idf <- words_by_season |> 
  bind_tf_idf(word,season,n)

words_tf_idf |> 
  arrange(-tf_idf)
```

    # A tibble: 1,948 × 7
       season word         n total      tf   idf  tf_idf
       <chr>  <chr>    <int> <int>   <dbl> <dbl>   <dbl>
     1 S4     max         16  1653 0.00968 0.693 0.00671
     2 S3     billy       11  1697 0.00648 0.693 0.00449
     3 S4     eddie        5  1653 0.00302 1.39  0.00419
     4 S1     jonathan     9  1697 0.00530 0.693 0.00368
     5 S4     nina         4  1653 0.00242 1.39  0.00335
     6 S4     rick         4  1653 0.00242 1.39  0.00335
     7 S3     d            4  1697 0.00236 1.39  0.00327
     8 S3     push         4  1697 0.00236 1.39  0.00327
     9 S3     scoops       4  1697 0.00236 1.39  0.00327
    10 S3     troop        4  1697 0.00236 1.39  0.00327
    # … with 1,938 more rows
…
Most frequent bigrams across all seasons:

``` r
all_bigrams |> 
  count(bigram, sort = TRUE) |> 
  drop_na() 
```

    # A tibble: 3,324 × 2
       bigram        n
       <chr>     <int>
     1 go go        96
     2 come on      89
     3 are you      36
     4 my god       27
     5 oh my        26
     6 this is      26
     7 i don't      24
     8 do you       23
     9 let's go     20
    10 all right    17
    # … with 3,314 more rows

Remove stop words

``` r
bigrams_sel <- all_bigrams |> 
  filter(!word1 %in% stop_words$word,
         !word2 %in% stop_words$word)

bigrams_sel |> 
  count(bigram, sort = TRUE) |> 
  drop_na() 
```

    # A tibble: 348 × 2
       bigram           n
       <chr>        <int>
     1 hey hey         11
     2 holy shit       11
     3 shit shit       11
     4 whoa whoa        8
     5 code red         6
     6 hey guys         5
     7 jesus christ     4
     8 scoops troop     4
     9 wait wait        4
    10 bald eagle       3
    # … with 338 more rows
…
</div>

## Sentiment analysis

NRC sentiments are from [Mohammad & Turney
(2012)](https://onlinelibrary.wiley.com/doi/abs/10.1111/j.1467-8640.2012.00460.x?casa_token=mup9Gbn896cAAAAA:jIIFEau36S9xE-VQcO2mNGubrxA7g6x4s9i_97h6PA7Jn68FKa--NNMd1LnmrayCokehZr7p637sSxkrLA).

``` r
nrc_sentiments <- get_sentiments("nrc")

nrc_sentiments
```

    # A tibble: 13,872 × 2
       word        sentiment
       <chr>       <chr>    
     1 abacus      trust    
     2 abandon     fear     
     3 abandon     negative 
     4 abandon     sadness  
     5 abandoned   anger    
     6 abandoned   fear     
     7 abandoned   negative 
     8 abandoned   sadness  
     9 abandonment anger    
    10 abandonment fear     
    # … with 13,862 more rows
…
