…
``` r
choc <- chocolate %>% 
  select(company_location, country_of_bean_origin, cocoa_percent, ingredients, most_memorable_characteristics, rating)
```

\#The top origins for sourcing beans

``` r
choc %>%
  count(country_of_bean_origin)%>%
  arrange(desc(n))
```

    ## # A tibble: 62 x 2
    ##    country_of_bean_origin     n
    ##    <chr>                  <int>
    ##  1 Venezuela                253
    ##  2 Peru                     244
    ##  3 Dominican Republic       226
    ##  4 Ecuador                  219
    ##  5 Madagascar               177
    ##  6 Blend                    156
    ##  7 Nicaragua                100
    ##  8 Bolivia                   80
    ##  9 Colombia                  79
    ## 10 Tanzania                  79
    ## # ... with 52 more rows

Venezuela, Peru, Dominican Republic, Ecuador and Madagascar were the top
5 origins for beans.

\#Company Location

``` r
choc %>%
  count(company_location)%>%
  arrange(desc(n))
```

    ## # A tibble: 67 x 2
    ##    company_location     n
    ##    <chr>            <int>
    ##  1 U.S.A.            1136
    ##  2 Canada             177
    ##  3 France             176
    ##  4 U.K.               133
    ##  5 Italy               78
    ##  6 Belgium             63
    ##  7 Ecuador             58
    ##  8 Australia           53
    ##  9 Switzerland         44
    ## 10 Germany             42
    ## # ... with 57 more rows
…
\#creating word dataset

``` r
characteristics <- top_5 %>%
  select(most_memorable_characteristics)
#extracting the words to get them to show individually in rows as opposed to listed. 
tidy_characteristic <- characteristics %>%
  unnest_tokens("word", most_memorable_characteristics)

tidy_characteristic
```

    ## # A tibble: 2,587 x 1
    ##    word      
    ##    <chr>     
    ##  1 cocoa     
    ##  2 vegetal   
    ##  3 savory    
    ##  4 cocoa     
    ##  5 blackberry
    ##  6 full      
    ##  7 body      
    ##  8 fatty     
    ##  9 earthy    
    ## 10 moss      
    ## # ... with 2,577 more rows

``` r
#creating a count for amount of times a characteristic was mentioned
clean_characteristic <- tidy_characteristic %>%
  anti_join(get_stopwords())
```

    ## Joining, by = "word"

``` r
clean_characteristic %>%
  count(word, sort = TRUE)
```

    ## # A tibble: 312 x 2
    ##    word        n
    ##    <chr>   <int>
    ##  1 cocoa     119
    ##  2 nutty      97
    ##  3 fruit      96
    ##  4 sweet      79
    ##  5 floral     76
    ##  6 sour       75
    ##  7 earthy     71
    ##  8 roasty     70
    ##  9 intense    68
    ## 10 mild       68
    ## # ... with 302 more rows
…
