…
minplay_by_time 
```

    ## # A tibble: 397 x 6
    ##    yearpublished country       minplayers count time_total minplayers_total
    ##            <dbl> <fct>         <fct>      <int>      <int>            <int>
    ##  1          1981 France        2              3          3             2241
    ##  2          1981 Germany       2              2          3             2241
    ##  3          1981 Germany       3              1          3              483
    ##  4          1981 United States 2              4          4             2241
    ##  5          1982 Germany       1              1          2              346
    ##  6          1982 Germany       2              1          2             2241
    ##  7          1982 United States 1              1         10              346
    ##  8          1982 United States 2              9         10             2241
    ##  9          1983 France        2              2          2             2241
    ## 10          1983 Germany       2              2          3             2241
    ## # ... with 387 more rows

``` r
nested_data <- minplay_by_time %>%
  nest(data = c(-minplayers, -country))

nested_data
```

    ## # A tibble: 26 x 3
    ##    country                minplayers data             
    ##    <fct>                  <fct>      <list>           
    ##  1 France                 2          <tibble [30 x 4]>
    ##  2 Germany                2          <tibble [41 x 4]>
    ##  3 Germany                3          <tibble [38 x 4]>
    ##  4 United States          2          <tibble [42 x 4]>
    ##  5 Germany                1          <tibble [25 x 4]>
    ##  6 United States          1          <tibble [35 x 4]>
    ##  7 United States          3          <tibble [30 x 4]>
    ##  8 France                 3          <tibble [23 x 4]>
    ##  9 Germany                4          <tibble [8 x 4]> 
    ## 10 France / United States 3          <tibble [14 x 4]>
    ## # ... with 16 more rows
…
``` r
library(broom)

slopes <- nested_models %>%
  mutate(models = map(models, tidy)) %>%
  unnest(cols = c(models)) %>%
  filter(term == "yearpublished") %>%
  mutate(adjusted.p.value = p.adjust(p.value))

slopes
```

    ## # A tibble: 26 x 9
    ##    country     minplayers data     term    estimate std.error statistic  p.value
    ##    <fct>       <fct>      <list>   <chr>      <dbl>     <dbl>     <dbl>    <dbl>
    ##  1 France      2          <tibble~ yearpu~ -8.95e-3   0.0129    -0.691   4.90e-1
    ##  2 Germany     2          <tibble~ yearpu~ -4.82e-4   0.00492   -0.0980  9.22e-1
    ##  3 Germany     3          <tibble~ yearpu~ -3.76e-2   0.00792   -4.74    2.10e-6
    ##  4 United Sta~ 2          <tibble~ yearpu~ -3.55e-3   0.00495   -0.717   4.73e-1
    ##  5 Germany     1          <tibble~ yearpu~  9.48e-2   0.0167     5.67    1.47e-8
    ##  6 United Sta~ 1          <tibble~ yearpu~  2.18e-2   0.0100     2.17    3.00e-2
    ##  7 United Sta~ 3          <tibble~ yearpu~ -2.07e-2   0.0119    -1.74    8.16e-2
    ##  8 France      3          <tibble~ yearpu~ -7.53e-2   0.0246    -3.06    2.23e-3
    ##  9 Germany     4          <tibble~ yearpu~ -5.84e-2   0.0561    -1.04    2.98e-1
    ## 10 France / U~ 3          <tibble~ yearpu~ -7.15e-2   0.0374    -1.91    5.59e-2
    ## # ... with 16 more rows, and 1 more variable: adjusted.p.value <dbl>
…
``` r
minplay_by_time <- subset(pub_countries,yearpublished>1980) %>%
  count(yearpublished, country, publisher) %>%
  group_by(country, yearpublished) %>%
  mutate(time_total = sum(n)) %>%
  group_by(publisher) %>%
  mutate(publisher_total = sum(n)) %>%
  ungroup() %>%
  rename(count = n) %>%
  filter(publisher_total > 30)

minplay_by_time 
```

    ## # A tibble: 674 x 6
    ##    yearpublished country       publisher        count time_total publisher_total
    ##            <dbl> <fct>         <chr>            <int>      <int>           <int>
    ##  1          1981 Germany       ABACUSSPIELE         2          3             137
    ##  2          1981 Germany       Ravensburger         1          3             263
    ##  3          1981 United States Mayfair Games        2          4              96
    ##  4          1981 United States Steve Jackson G~     2          4              56
    ##  5          1982 Germany       AMIGO                1          2             247
    ##  6          1982 Germany       Ravensburger         1          2             263
    ##  7          1982 United States Hasbro               3         10             375
    ##  8          1982 United States Mayfair Games        5         10              96
    ##  9          1982 United States Steve Jackson G~     2         10              56
    ## 10          1983 Germany       AMIGO                1          3             247
    ## # ... with 664 more rows

``` r
nested_data <- minplay_by_time %>%
  nest(data = c(-publisher, -country))

nested_data
```

    ## # A tibble: 26 x 3
    ##    country       publisher           data             
    ##    <fct>         <chr>               <list>           
    ##  1 Germany       ABACUSSPIELE        <tibble [33 x 4]>
    ##  2 Germany       Ravensburger        <tibble [39 x 4]>
    ##  3 United States Mayfair Games       <tibble [29 x 4]>
    ##  4 United States Steve Jackson Games <tibble [26 x 4]>
    ##  5 Germany       AMIGO               <tibble [39 x 4]>
    ##  6 United States Hasbro              <tibble [38 x 4]>
    ##  7 Germany       Hans im Glück       <tibble [34 x 4]>
    ##  8 Germany       Queen Games         <tibble [31 x 4]>
    ##  9 Germany       Schmidt Spiele      <tibble [27 x 4]>
    ## 10 Germany       KOSMOS              <tibble [33 x 4]>
    ## # ... with 16 more rows
…
``` r
library(broom)

slopes <- nested_models %>%
  mutate(models = map(models, tidy)) %>%
  unnest(cols = c(models)) %>%
  filter(term == "yearpublished") %>%
  mutate(adjusted.p.value = p.adjust(p.value))

slopes
```

    ## # A tibble: 26 x 9
    ##    country       publisher   data    term   estimate std.error statistic p.value
    ##    <fct>         <chr>       <list>  <chr>     <dbl>     <dbl>     <dbl>   <dbl>
    ##  1 Germany       ABACUSSPIE~ <tibbl~ yearp~ -3.72e-2   0.0109    -3.42   6.37e-4
    ##  2 Germany       Ravensburg~ <tibbl~ yearp~ -6.98e-4   0.00769   -0.0908 9.28e-1
    ##  3 United States Mayfair Ga~ <tibbl~ yearp~ -6.58e-2   0.0120    -5.51   3.59e-8
    ##  4 United States Steve Jack~ <tibbl~ yearp~ -6.56e-2   0.0146    -4.48   7.38e-6
    ##  5 Germany       AMIGO       <tibbl~ yearp~ -2.69e-2   0.00784   -3.43   6.00e-4
    ##  6 United States Hasbro      <tibbl~ yearp~ -3.08e-2   0.00728   -4.24   2.26e-5
    ##  7 Germany       Hans im Gl~ <tibbl~ yearp~ -3.81e-2   0.0136    -2.81   4.93e-3
    ##  8 Germany       Queen Games <tibbl~ yearp~  3.38e-3   0.0125     0.271  7.86e-1
    ##  9 Germany       Schmidt Sp~ <tibbl~ yearp~  2.25e-2   0.0150     1.50   1.33e-1
    ## 10 Germany       KOSMOS      <tibbl~ yearp~  3.23e-2   0.00912    3.54   3.98e-4
    ## # ... with 16 more rows, and 1 more variable: adjusted.p.value <dbl>
…
